<?xml version="1.0" encoding="UTF-8"?>
<testng-results ignored="0" total="1" passed="1" failed="0" skipped="0">
  <reporter-output>
  </reporter-output>
  <suite started-at="2022-01-18T17:19:24 IST" name="Suite" finished-at="2022-01-18T17:19:39 IST" duration-ms="15175">
    <groups>
    </groups>
    <test started-at="2022-01-18T17:19:24 IST" name="Test1" finished-at="2022-01-18T17:19:39 IST" duration-ms="15175">
      <class name="mavenforjenkins.UITest">
        <test-method signature="startBrowser()[pri:0, instance:mavenforjenkins.UITest@63070bab]" started-at="2022-01-18T17:19:24 IST" name="startBrowser" finished-at="2022-01-18T17:19:39 IST" duration-ms="15137" status="PASS">
          <reporter-output>
          </reporter-output>
        </test-method> <!-- startBrowser -->
      </class> <!-- mavenforjenkins.UITest -->
    </test> <!-- Test1 -->
  </suite> <!-- Suite -->
</testng-results>
